…
We need to take all the values (excluding years) and put them into a single column for easier counting. Imagine you had a piece of paper with all these values in a single list column. You could pick a name - we’ll use Dave - and go down your list and at the 12th entry you would see ‘Dave’ (that’s 1), then the 19th entry (that’s 2), then the 22nd entry (that’s 3) and so on.

But you might have noticed a problem! How do you keep track of which entry was a first? Which was a second? And which was third? pivot_longer() addresses this by placing the variable names into a single column before the column that holds our values, ‘GM’.

# takes the values from each column (first, second, third), but excludes year values
# places all the values into a GM column
#
# variable names are placed into 'name' column
podium %>%
    pivot_longer(cols = -year, values_to = 'GM')

## # A tibble: 24 x 3
##     year name   GM   
##    <int> <chr>  <chr>
##  1  2012 first  Mik  
##  2  2012 second Jon  
##  3  2012 third  Katz 
##  4  2013 first  Nate 
##  5  2013 second Alex 
##  6  2013 third  Katz 
##  7  2014 first  Nate 
##  8  2014 second Ian  
##  9  2014 third  Jack 
## 10  2015 first  Chris
## # ... with 14 more rows
…
